set terminal epslatex
# set terminal pdf enhanced font "times,12"
# set grid
# set format x "2^{%.0f}"
# set arrow from mu, 0 to mu, normal(mu, mu, sigma) nohead
# set arrow from mu, normal(mu + sigma, mu, sigma) \
#           to mu + sigma, normal(mu + sigma, mu, sigma) nohead
#           set label "mu" at mu + 0.5, ymax / 10
#           set label "sigma" at mu + 0.5 + sigma, normal(mu + sigma, mu, sigma)#
#set ylabel "Probability"
set xlabel "$\\delta$"
set ylabel "Gap"
set key left top Left reverse
set logscale x
# set output "resultGapCminDelta.pdf"
set output "resultGapCminDelta.tex"
fct_1(x)=0.73*log(100000)-0.73*log(x) + 1.5
fct_2(x)=0.73*log(10000)-0.73*log(x) + 1.5
fct_3(x)=0.73*log(1000)-0.73*log(x) + 1.5
plot [0.5:0.00001] fct_1(x) t "$\\tau'_3(n=10^5,\\delta)$" with line lt 1, "gapCMinDelta.dat"  using 1:4 title "$\\Gap_{\\lceil N(1-\\delta)\\rceil}$ avec $n=10^5$" with linespoints lt 1, fct_2(x) t "$\\tau'_3(n=10^4, \\delta)$" with line lt 2, "" using 1:3 title "$\\Gap_{\\lceil N(1-\\delta)\\rceil}$ avec $n=10^{4}$" with linespoints lt 2, fct_3(x) t "$\\tau'_3(n=10^3,\\delta)$" with line lt 3, "" using 1:2 title "$\\Gap_{\\lceil N(1-\\delta)\\rceil}$ avec $n=10^{3}$" with linespoints lt 3 
# plot [0.5:0.00001] "averageIntDelta.dat" using 1:4 title "$n=10^{4}$" with linespoints, "" using 1:3 title "$n=10^{3}$" with linespoints, "" using 1:2 title "$n=10^{2}$" with linespoints  , fct_1(x) t "$\tau_2(n,delta)$ with $n=10^{4}$" with pi -2, fct_2(x) t "$\tau_2(n,delta) $n=10^{3}$" with pi -2, fct_3(x) t "$\tau_2(n,delta) with $n=10^{2}$" with pi -2

