#
set terminal pdf
set output "resultNClockFr.pdf"
set logscale x
set grid
set key left top
set ylabel "Gap"
set xlabel "Nombre d'agents n"
plot 'ndata.dat'  u 1:4 t "Gap maximal" with linespoints, ''  u 1:3 t "Gap moyen" with linespoints , '' u 1:2 t "Gap minimal" with linespoints
#plot 'ndata.dat'  u 1:4 t "maximum Gap" with linespoints, ''  u 1:3 t "average Gap" with linespoints , '' u 1:2 t "minimum Gap" with linespoints , 'ndataAv.dat'  u 1:4 t "max Gap(Avg)" with linespoints, ''  u 1:3 t "average Gap(Avg)" with linespoints , '' u 1:2 t "minimum Gap(Avg)" with linespoints 




