set terminal epslatex
set output "stProb.tex"
# set terminal pdf
# set output "stProb.pdf"
set grid
set key left top
# <<<<<<< HEAD
set ylabel "Pourcentage de noeuds"
set xlabel "Temps parallèle T=t/n"
plot 'stProb30.dat'  u 1:5 t "$\\dec = 1$" with linespoints, ''  u 1:4 t "$\\dec=0$" with linespoints , '' u 1:3 t "$\\dec=-1$" with linespoints , '' u 1:2 t "$\\dec=-2$" with linespoints
# =======
# set ylabel "Proportion of nodes"
# set xlabel "Parallel time T=t/n"
# plot 'stProb30.dat'  u 1:5 t "d = 1" with linespoints, ''  u 1:4 t "d = 0" with linespoints , '' u 1:3 t "d = -1" with linespoints , '' u 1:2 t "d = -2" with linespoints
# >>>>>>> b60b4f2c36179da59cf2a2fae4a7b8a8935e3305




